Lab 3
…
EducPolitical <- filter(EducPolitical, "Highest year of school completed" > 12)
str(EducPolitical)

## tibble [64,259 x 2] (S3: tbl_df/tbl/data.frame)
##  $ Political party affiliation     : chr [1:64259] "Ind,near dem" "Not str democrat" "Independent" "Not str democrat" ...
##  $ Highest year of school completed: chr [1:64259] "16" "10" "12" "17" ...

EducPolitical

## # A tibble: 64,259 x 2
##    `Political party affiliation` `Highest year of school completed`
##    <chr>                         <chr>                             
##  1 Ind,near dem                  16                                
##  2 Not str democrat              10                                
##  3 Independent                   12                                
##  4 Not str democrat              17                                
##  5 Strong democrat               12                                
##  6 Ind,near dem                  14                                
##  7 Ind,near dem                  13                                
##  8 Ind,near dem                  16                                
##  9 Strong democrat               12                                
## 10 Strong democrat               12                                
## # ... with 64,249 more rows
…
